{
  "environment": "web",
  "source": "1vpv892HtZReMkh8UUx7abjc5ZZVDhGlvlZThRX5O87A",
  "format": "html",
  "prefix": "../../",
  "mainga": "UA-49880327-14",
  "updated": "2019-10-23T11:38:37Z",
  "id": "here-xyz-introduction",
  "duration": 0,
  "title": "HERE XYZ. Основы визуализации геоданных",
  "author": "Max",
  "summary": "HERE XYZ - облачная геолокационная платформа, которая позволяет быстро и просто разработать веб-приложение с интерактивной картой без навыков программирования",
  "theme": "web",
  "status": [
    "production"
  ],
  "category": [
    "Web"
  ],
  "tags": [
    "web"
  ],
  "url": "here-xyz-introduction"
}
